{
    "directed": true, 
    "graph": {}, 
    "links": [
        {
            "source": 0, 
            "status": true, 
            "structure_type": "P", 
            "target": 14
        }, 
        {
            "source": 0, 
            "status": false, 
            "structure_type": "WST", 
            "target": 3
        }, 
        {
            "source": 0, 
            "status": true, 
            "structure_type": "WST", 
            "target": 4
        }, 
        {
            "source": 0, 
            "status": true, 
            "structure_type": "P", 
            "target": 6
        }, 
        {
            "source": 1, 
            "status": true, 
            "structure_type": "P", 
            "target": 14
        }, 
        {
            "source": 1, 
            "status": true, 
            "structure_type": "P", 
            "target": 6
        }, 
        {
            "source": 3, 
            "status": true, 
            "structure_type": "WSR", 
            "target": 2
        }, 
        {
            "source": 4, 
            "status": true, 
            "structure_type": "WSR", 
            "target": 2
        }, 
        {
            "source": 8, 
            "status": true, 
            "structure_type": "B", 
            "target": 0
        }, 
        {
            "source": 8, 
            "status": true, 
            "structure_type": "P", 
            "target": 14
        }, 
        {
            "source": 9, 
            "status": true, 
            "structure_type": "B", 
            "target": 0
        }, 
        {
            "source": 9, 
            "status": true, 
            "structure_type": "P", 
            "target": 5
        }, 
        {
            "source": 12, 
            "status": false, 
            "structure_type": "WST", 
            "target": 3
        }, 
        {
            "source": 12, 
            "status": true, 
            "structure_type": "P", 
            "target": 6
        }, 
        {
            "source": 13, 
            "status": true, 
            "structure_type": "P", 
            "target": 14
        }, 
        {
            "source": 13, 
            "status": false, 
            "structure_type": "WST", 
            "target": 3
        }, 
        {
            "source": 13, 
            "status": true, 
            "structure_type": "WST", 
            "target": 4
        }, 
        {
            "source": 13, 
            "status": true, 
            "structure_type": "P", 
            "target": 6
        }
    ], 
    "multigraph": false, 
    "nodes": [
        {
            "id": 1, 
            "identifier": "B-1 Medical", 
            "status": true
        }, 
        {
            "id": 2, 
            "identifier": "B-2 Outpatient", 
            "status": false
        }, 
        {
            "id": 3, 
            "identifier": "WSR-1 River", 
            "status": true
        }, 
        {
            "id": 4, 
            "identifier": "WST-1 Poly Tank", 
            "status": false
        }, 
        {
            "id": 5, 
            "identifier": "WST-2 Poly Tank", 
            "status": true
        }, 
        {
            "id": 6, 
            "identifier": "P-1 Solar Power", 
            "status": true
        }, 
        {
            "id": 7, 
            "identifier": "P-2 Solar Power", 
            "status": true
        }, 
        {
            "id": 8, 
            "identifier": "S-1 VIP Toilet", 
            "status": true
        }, 
        {
            "id": 9, 
            "identifier": "C-1 VHF Radio", 
            "status": true
        }, 
        {
            "id": 10, 
            "identifier": "CST-1 Top-door freezer (100L)", 
            "status": true
        }, 
        {
            "id": 11, 
            "identifier": "V-1 Truck Single-Cabin 4WD", 
            "status": true
        }, 
        {
            "id": 12, 
            "identifier": "BO-1 Banana Boat", 
            "status": true
        }, 
        {
            "id": 13, 
            "identifier": "B-3 Storage", 
            "status": true
        }, 
        {
            "id": 14, 
            "identifier": "B-4 Medical", 
            "status": false
        }, 
        {
            "id": 15, 
            "identifier": "P-3 Diesel Generator", 
            "status": true
        }
    ]
}