2965 -=- inspection added to building :: 846
2967 -=- inspection added to building :: 940
2966 -=- inspection added to building :: 730
2961 -=- inspection added to building :: 896
2960 -=- inspection added to building :: 706
2963 -=- inspection added to building :: 842
2962 -=- inspection added to building :: 844
2844 -=- inspection added to building :: 954
2844 -=- inspection added to building :: 955
2842 -=- inspection added to building :: 733
2842 -=- inspection added to building :: 734
2842 -=- inspection added to building :: 735
2842 -=- inspection added to building :: 738
2843 -=- inspection added to building :: 713
2843 -=- inspection added to building :: 714
2843 -=- inspection added to building :: 715
2843 -=- inspection added to building :: 719
2840 -=- inspection added to building :: 1001
2840 -=- inspection added to building :: 1006
2840 -=- inspection added to building :: 1007
2840 -=- inspection added to building :: 1008
2840 -=- inspection added to building :: 1009
2840 -=- inspection added to building :: 1010
2840 -=- inspection added to building :: 1011
2840 -=- inspection added to building :: 1012
2841 -=- inspection added to building :: 1002
1670 -=- inspection added to building :: 823
1671 -=- inspection added to building :: 939
1672 -=- inspection added to building :: 945
1673 -=- inspection added to building :: 822
2969 -=- inspection added to building :: 994
2968 -=- inspection added to building :: 818
1669 -=- inspection added to building :: 770
1668 -=- inspection added to building :: 950
1667 -=- inspection added to building :: 1003
1667 -=- inspection added to building :: 1013
1666 -=- inspection added to building :: 908
1665 -=- inspection added to building :: 926
1665 -=- inspection added to building :: 925
1665 -=- inspection added to building :: 925
1664 -=- inspection added to building :: 894
1664 -=- inspection added to building :: 894
1663 -=- inspection added to building :: 956
1662 -=- inspection added to building :: 921
1661 -=- inspection added to building :: 841
1660 -=- inspection added to building :: 993
1230 -=- inspection added to building :: 1004
1230 -=- inspection added to building :: 1014
1230 -=- inspection added to building :: 1015
1230 -=- inspection added to building :: 1016
1230 -=- inspection added to building :: 1017
1230 -=- inspection added to building :: 1018
1230 -=- inspection added to building :: 1019
1230 -=- inspection added to building :: 1020
1230 -=- inspection added to building :: 1021
1230 -=- inspection added to building :: 1022
1230 -=- inspection added to building :: 1023
1230 -=- inspection added to building :: 1024
1230 -=- inspection added to building :: 1025
1230 -=- inspection added to building :: 1026
1230 -=- inspection added to building :: 1027
1230 -=- inspection added to building :: 1028
1230 -=- inspection added to building :: 1029
1230 -=- inspection added to building :: 1030
2982 -=- inspection added to building :: 726
2981 -=- inspection added to building :: 652
###ALERT###2980 -=- Did not match building: B1. - Dispensary Building 
2980 -=- new building added: B1. - Dispensary Building 
2980 -=- inspection added to building :: 1051
2664 -=- inspection added to building :: 696
2665 -=- inspection added to building :: 789
2662 -=- inspection added to building :: 877
2662 -=- inspection added to building :: 878
2662 -=- inspection added to building :: 879
2663 -=- inspection added to building :: 824
2660 -=- inspection added to building :: 911
2661 -=- inspection added to building :: 885
2879 -=- inspection added to building :: 728
2879 -=- inspection added to building :: 729
###ALERT###1641 -=- Did not match building: B1- Outpatient Building
1641 -=- new building added: B1- Outpatient Building
1641 -=- inspection added to building :: 1052
###ALERT###1641 -=- Did not match building: B2 - Workshop Building
1641 -=- new building added: B2 - Workshop Building
1641 -=- inspection added to building :: 1053
###ALERT###1641 -=- Did not match building: B3 - Youth Centre Building
1641 -=- new building added: B3 - Youth Centre Building
1641 -=- inspection added to building :: 1054
###ALERT###1641 -=- Did not match building: B4 - Laboratory and Maternity Building
1641 -=- new building added: B4 - Laboratory and Maternity Building
1641 -=- inspection added to building :: 1055
###ALERT###1641 -=- Did not match building: B5 - Staff House #1
1641 -=- new building added: B5 - Staff House #1
1641 -=- inspection added to building :: 1056
###ALERT###1641 -=- Did not match building: B6 - Staff House #2
1641 -=- new building added: B6 - Staff House #2
1641 -=- inspection added to building :: 1057
###ALERT###1641 -=- Did not match building: B7 - Staff House #3
1641 -=- new building added: B7 - Staff House #3
1641 -=- inspection added to building :: 1058
1640 -=- inspection added to building :: 863
1640 -=- inspection added to building :: 864
1640 -=- inspection added to building :: 865
1640 -=- inspection added to building :: 866
1640 -=- inspection added to building :: 867
1640 -=- inspection added to building :: 868
1640 -=- inspection added to building :: 869
1642 -=- inspection added to building :: 876
1840 -=- inspection added to building :: 708
1840 -=- inspection added to building :: 709
1840 -=- inspection added to building :: 710
1840 -=- inspection added to building :: 711
###ALERT###1876 -=- Did not match building: B1- Dispensary 
1876 -=- new building added: B1- Dispensary 
1876 -=- inspection added to building :: 1059
1877 -=- inspection added to building :: 821
###ALERT###1875 -=- Did not match building: B1- Aid-Post Building
1875 -=- new building added: B1- Aid-Post Building
1875 -=- inspection added to building :: 1060
1872 -=- inspection added to building :: 754
1873 -=- inspection added to building :: 787
1871 -=- inspection added to building :: 895
###ALERT###2882 -=- Did not match building: B1-Mechanical Building 
2882 -=- new building added: B1-Mechanical Building 
2882 -=- inspection added to building :: 1061
###ALERT###2883 -=- Did not match building: B1- Dispensary 
2883 -=- new building added: B1- Dispensary 
2883 -=- inspection added to building :: 1062
2880 -=- inspection added to building :: 952
2880 -=- inspection added to building :: 953
2881 -=- inspection added to building :: 812
SHE-TOBOAP-28 -=- inspection added to building :: 862
###ALERT###1861 -=- Did not match building: B1- Dispensary 
1861 -=- new building added: B1- Dispensary 
1861 -=- inspection added to building :: 1063
###ALERT###1861 -=- Did not match building: B2 - Staff House
1861 -=- new building added: B2 - Staff House
1861 -=- inspection added to building :: 1064
###ALERT###1860 -=- Did not match building: B1- Health Center 
1860 -=- new building added: B1- Health Center 
1860 -=- inspection added to building :: 1065
###ALERT###1860 -=- Did not match building: B2 -  Malaria Lab, Maternity & Delivery
1860 -=- new building added: B2 -  Malaria Lab, Maternity & Delivery
1860 -=- inspection added to building :: 1066
###ALERT###1860 -=- Did not match building: B3 - Staff House 1 (Damaged)
1860 -=- new building added: B3 - Staff House 1 (Damaged)
1860 -=- inspection added to building :: 1067
1863 -=- inspection added to building :: 943
1863 -=- inspection added to building :: 944
1862 -=- inspection added to building :: 740
1862 -=- inspection added to building :: 741
1865 -=- inspection added to building :: 722
1865 -=- inspection added to building :: 723
1864 -=- inspection added to building :: 947
1864 -=- inspection added to building :: 948
1867 -=- inspection added to building :: 773
1867 -=- inspection added to building :: 774
1866 -=- inspection added to building :: 752
1866 -=- inspection added to building :: 753
1869 -=- inspection added to building :: 732
###ALERT###1868 -=- Did not match building: B1- Dispensary 
1868 -=- new building added: B1- Dispensary 
1868 -=- inspection added to building :: 1068
###ALERT###1868 -=- Did not match building: B2 - Staff House 
1868 -=- new building added: B2 - Staff House 
1868 -=- inspection added to building :: 1069
2860 -=- inspection added to building :: 909
2860 -=- inspection added to building :: 910
###ALERT###2861 -=- Did not match building: B1- Dispensary 
2861 -=- new building added: B1- Dispensary 
2861 -=- inspection added to building :: 1070
###ALERT###2862 -=- Did not match building: B1- Dispensary 
2862 -=- new building added: B1- Dispensary 
2862 -=- inspection added to building :: 1071
2863 -=- inspection added to building :: 991
2863 -=- inspection added to building :: 992
2864 -=- inspection added to building :: 756
2864 -=- inspection added to building :: 757
2865 -=- inspection added to building :: 720
2865 -=- inspection added to building :: 721
2866 -=- inspection added to building :: 922
2867 -=- inspection added to building :: 847
###ALERT###2868 -=- Did not match building: B1- Dispensary Building
2868 -=- new building added: B1- Dispensary Building
2868 -=- inspection added to building :: 1072
2869 -=- inspection added to building :: 957
2945 -=- inspection added to building :: 724
2945 -=- inspection added to building :: 724
2944 -=- inspection added to building :: 777
2944 -=- inspection added to building :: 778
2944 -=- inspection added to building :: 779
2943 -=- inspection added to building :: 848
2943 -=- inspection added to building :: 849
2943 -=- inspection added to building :: 850
2942 -=- inspection added to building :: 745
2942 -=- inspection added to building :: 746
2942 -=- inspection added to building :: 747
2942 -=- inspection added to building :: 748
###ALERT###2941 -=- Did not match building: B1. - Consultation, 2No. Admission Rooms, Malaria Laboratory, Dressing & Treatment, Sanitary Facility's (M/F)
2941 -=- new building added: B1. - Consultation, 2No. Admission Rooms, Malaria Laboratory, Dressing & Treatment, Sanitary Facility's (M/F)
2941 -=- inspection added to building :: 1073
2940 -=- inspection added to building :: 899
2940 -=- inspection added to building :: 900
4000 -=- inspection added to building :: 833
4000 -=- inspection added to building :: 834
4000 -=- inspection added to building :: 835
4000 -=- inspection added to building :: 836
2873 -=- inspection added to building :: 959
2872 -=- inspection added to building :: 785
###ALERT###2871 -=- Did not match building: Medical /Staff House
2871 -=- new building added: Medical /Staff House
2871 -=- inspection added to building :: 1074
2870 -=- inspection added to building :: 776
2877 -=- inspection added to building :: 684
2877 -=- inspection added to building :: 685
2875 -=- inspection added to building :: 758
2875 -=- inspection added to building :: 759
2874 -=- inspection added to building :: 840
2640 -=- inspection added to building :: 855
2640 -=- inspection added to building :: 856
2640 -=- inspection added to building :: 857
2641 -=- inspection added to building :: 798
2642 -=- inspection added to building :: 927
###ALERT###2878 -=- Did not match building: B1- Dispensary 
2878 -=- new building added: B1- Dispensary 
2878 -=- inspection added to building :: 1075
2978 -=- inspection added to building :: 884
###ALERT###2979 -=- Did not match building: B1. - Dispensary Building 
2979 -=- new building added: B1. - Dispensary Building 
2979 -=- inspection added to building :: 1076
2972 -=- inspection added to building :: 654
2973 -=- inspection added to building :: 768
2973 -=- inspection added to building :: 769
2970 -=- inspection added to building :: 873
2971 -=- inspection added to building :: 919
###ALERT###2976 -=- Did not match building: B1. - Dispensary Building 
2976 -=- new building added: B1. - Dispensary Building 
2976 -=- inspection added to building :: 1077
2974 -=- inspection added to building :: 853
2975 -=- inspection added to building :: 870
